/Users/a1345881/Documents/sampleBitProject/bigqueryrepo/src/main/java/com/javasampleapproach/bigquery/App.java
/Users/a1345881/Documents/sampleBitProject/bigqueryrepo/src/main/java/com/javasampleapproach/bigquery/Pojo.java
/Users/a1345881/Documents/sampleBitProject/bigqueryrepo/src/main/java/com/javasampleapproach/controller/bigQueryController.java
/Users/a1345881/Documents/sampleBitProject/bigqueryrepo/src/main/java/com/javasampleapproach/authentication/BigQueryAuthentication.java
/Users/a1345881/Documents/sampleBitProject/bigqueryrepo/src/main/java/com/javasampleapproach/bigquery/BigQuery.java
/Users/a1345881/Documents/sampleBitProject/bigqueryrepo/src/main/java/com/javasampleapproach/bigquery/BeanConfiguration.java
/Users/a1345881/Documents/sampleBitProject/bigqueryrepo/src/main/java/com/javasampleapproach/bigquery/BigQueryService.java
